option('CI_COMMIT_TAG',
  type        : 'string',
  value       : '',
  description : 'Commit tag for version information in a release')
option('RASPBERRY',
  type        : 'boolean',
  value       : false,
  description : 'Set if running on a RaspberryPi for a better layout')
option('DMCPVERSION',
  type        : 'string',
  value       : '',
  description : 'dmcp or dmcp5')
