;*************************************************************
;*************************************************************
;**                                                         **
;**                   PDF of F distribution                 **
;**                                                         **
;*************************************************************
;*************************************************************
In: FL_SPCRES=0 FL_CPXRES=0 SD=0 RMODE=0 IM=2compl SS=4 WS=64
Func: fnF_P



;=======================================
; F_P(Long Integer) --> Real
;=======================================
In:  AM=DEG FL_ASLIFT=0 FL_CPXRES=0 RM=LonI:"1" RN=LonI:"1" RX=LonI:"1"
Out: EC=0 FL_CPXRES=0 FL_ASLIFT=1 RL=LonI:"1" RX=Real:"0.1591549430918953357688837633725144"

In:  AM=DEG FL_ASLIFT=0 FL_CPXRES=0 RM=LonI:"1" RN=LonI:"1" RX=LonI:"2"
Out: EC=0 FL_CPXRES=0 FL_ASLIFT=1 RL=LonI:"2" RX=Real:"0.07502635967975883912959993258389505"


In:  AM=DEG FL_ASLIFT=0 FL_CPXRES=0 RM=LonI:"2" RN=LonI:"1" RX=LonI:"1"
Out: EC=0 FL_CPXRES=0 FL_ASLIFT=1 RL=LonI:"1" RX=Real:"0.1924500897298752548363829268339858"

In:  AM=DEG FL_ASLIFT=0 FL_CPXRES=0 RM=LonI:"2" RN=LonI:"1" RX=LonI:"2"
Out: EC=0 FL_CPXRES=0 FL_ASLIFT=1 RL=LonI:"2" RX=Real:"0.08944271909999158785636694674925105"


In:  AM=DEG FL_ASLIFT=0 FL_CPXRES=0 RM=LonI:"5" RN=LonI:"3" RX=LonI:"1"
Out: EC=0 FL_CPXRES=0 FL_ASLIFT=1 RL=LonI:"1" RX=Real:"0.3611744789422850423232240787168814"

In:  AM=DEG FL_ASLIFT=0 FL_CPXRES=0 RM=LonI:"5" RN=LonI:"3" RX=LonI:"2"
Out: EC=0 FL_CPXRES=0 FL_ASLIFT=1 RL=LonI:"2" RX=Real:"0.1465036979991715976156093317624747"



;=======================================
; F_P(Time) --> Error24
;=======================================



;=======================================
; F_P(Date) --> Error24
;=======================================



;=======================================
; F_P(String) --> Error24
;=======================================
In:  FL_ASLIFT=0 RX=Stri:"String test"
Out: EC=24 FL_ASLIFT=0 RX=Stri:"String test"



;=======================================
; F_P(Real Matrix) --> Error24
;=======================================



;=======================================
; F_P(Complex Matrix) --> Error24
;=======================================



;=======================================
; F_P(Short Integer) --> Error24
;=======================================



;=======================================
; F_P(Real) --> Real
;=======================================
In:  AM=DEG FL_ASLIFT=0 FL_CPXRES=0 RM=Real:"1" RN=Real:"1" RX=Real:"1"
Out: EC=0 FL_CPXRES=0 FL_ASLIFT=1 RL=Real:"1" RX=Real:"0.1591549430918953357688837633725144"

In:  AM=DEG FL_ASLIFT=0 FL_CPXRES=0 RM=Real:"1" RN=Real:"1" RX=Real:"2"
Out: EC=0 FL_CPXRES=0 FL_ASLIFT=1 RL=Real:"2" RX=Real:"0.07502635967975883912959993258389505"


In:  AM=DEG FL_ASLIFT=0 FL_CPXRES=0 RM=Real:"2" RN=Real:"1" RX=Real:"1"
Out: EC=0 FL_CPXRES=0 FL_ASLIFT=1 RL=Real:"1" RX=Real:"0.1924500897298752548363829268339858"

In:  AM=DEG FL_ASLIFT=0 FL_CPXRES=0 RM=Real:"2" RN=Real:"1" RX=Real:"2"
Out: EC=0 FL_CPXRES=0 FL_ASLIFT=1 RL=Real:"2" RX=Real:"0.08944271909999158785636694674925105"


In:  AM=DEG FL_ASLIFT=0 FL_CPXRES=0 RM=Real:"5" RN=Real:"3" RX=Real:"1"
Out: EC=0 FL_CPXRES=0 FL_ASLIFT=1 RL=Real:"1" RX=Real:"0.3611744789422850423232240787168814"

In:  AM=DEG FL_ASLIFT=0 FL_CPXRES=0 RM=Real:"5" RN=Real:"3" RX=Real:"2"
Out: EC=0 FL_CPXRES=0 FL_ASLIFT=1 RL=Real:"2" RX=Real:"0.1465036979991715976156093317624747"



;=======================================
; F_P(Complex) --> Error24
;=======================================
