;*************************************************************
;*************************************************************
;**                                                         **
;**               CDF of Poisson distribution               **
;**                                                         **
;*************************************************************
;*************************************************************
In: FL_SPCRES=0 FL_CPXRES=0 SD=0 RMODE=0 IM=2compl SS=4 WS=64
Func: fnPoissonL



;=======================================
; PoissonL(Long Integer) --> Real
;=======================================
In:  AM=DEG FL_ASLIFT=0 FL_CPXRES=0 RR=LonI:"1" RX=LonI:"0"
Out: EC=0 FL_CPXRES=0 FL_ASLIFT=1 RL=LonI:"0" RX=Real:"0.3678794411714423215955237701614609"

In:  AM=DEG FL_ASLIFT=0 FL_CPXRES=0 RR=LonI:"1" RX=LonI:"1"
Out: EC=0 FL_CPXRES=0 FL_ASLIFT=1 RL=LonI:"1" RX=Real:"0.7357588823428846431910475403229217"

In:  AM=DEG FL_ASLIFT=0 FL_CPXRES=0 RR=LonI:"1" RX=LonI:"2"
Out: EC=0 FL_CPXRES=0 FL_ASLIFT=1 RL=LonI:"2" RX=Real:"0.9196986029286058039888094254036522"

In:  AM=DEG FL_ASLIFT=0 FL_CPXRES=0 RR=LonI:"1" RX=LonI:"3"
Out: EC=0 FL_CPXRES=0 FL_ASLIFT=1 RL=LonI:"3" RX=Real:"0.9810118431238461909213967204305623"

In:  AM=DEG FL_ASLIFT=0 FL_CPXRES=0 RR=LonI:"1" RX=LonI:"5"
Out: EC=0 FL_CPXRES=0 FL_ASLIFT=1 RL=LonI:"5" RX=Real:"0.9994058151824183070011729089386354"


In:  AM=DEG FL_ASLIFT=0 FL_CPXRES=0 RR=LonI:"5" RX=LonI:"0"
Out: EC=0 FL_CPXRES=0 FL_ASLIFT=1 RL=LonI:"0" RX=Real:"0.006737946999085467096636048423148424"

In:  AM=DEG FL_ASLIFT=0 FL_CPXRES=0 RR=LonI:"5" RX=LonI:"3"
Out: EC=0 FL_CPXRES=0 FL_ASLIFT=1 RL=LonI:"3" RX=Real:"0.2650259152973617058010179046438380"

In:  AM=DEG FL_ASLIFT=0 FL_CPXRES=0 RR=LonI:"5" RX=LonI:"5"
Out: EC=0 FL_CPXRES=0 FL_ASLIFT=1 RL=LonI:"5" RX=Real:"0.6159606548330631170841454266828185"

In:  AM=DEG FL_ASLIFT=0 FL_CPXRES=0 RR=LonI:"5" RX=LonI:"8"
Out: EC=0 FL_CPXRES=0 FL_ASLIFT=1 RL=LonI:"8" RX=Real:"0.9319063652781514412304135082804124"

In:  AM=DEG FL_ASLIFT=0 FL_CPXRES=0 RR=LonI:"5" RX=LonI:"10"
Out: EC=0 FL_CPXRES=0 FL_ASLIFT=1 RL=LonI:"10" RX=Real:"0.9863047314016170617790133845885381"



;=======================================
; PoissonL(Time) --> Error24
;=======================================



;=======================================
; PoissonL(Date) --> Error24
;=======================================



;=======================================
; PoissonL(String) --> Error24
;=======================================
In:  FL_ASLIFT=0 RX=Stri:"String test"
Out: EC=24 FL_ASLIFT=0 RX=Stri:"String test"



;=======================================
; PoissonL(Real Matrix) --> Error24
;=======================================



;=======================================
; PoissonL(Complex Matrix) --> Error24
;=======================================



;=======================================
; PoissonL(Short Integer) --> Error24
;=======================================



;=======================================
; PoissonL(Real) --> Real
;=======================================
In:  AM=DEG FL_ASLIFT=0 FL_CPXRES=0 RR=Real:"1" RX=Real:"0"
Out: EC=0 FL_CPXRES=0 FL_ASLIFT=1 RL=Real:"0" RX=Real:"0.3678794411714423215955237701614609"

In:  AM=DEG FL_ASLIFT=0 FL_CPXRES=0 RR=Real:"1" RX=Real:"1"
Out: EC=0 FL_CPXRES=0 FL_ASLIFT=1 RL=Real:"1" RX=Real:"0.7357588823428846431910475403229217"

In:  AM=DEG FL_ASLIFT=0 FL_CPXRES=0 RR=Real:"1" RX=Real:"2"
Out: EC=0 FL_CPXRES=0 FL_ASLIFT=1 RL=Real:"2" RX=Real:"0.9196986029286058039888094254036522"

In:  AM=DEG FL_ASLIFT=0 FL_CPXRES=0 RR=Real:"1" RX=Real:"3"
Out: EC=0 FL_CPXRES=0 FL_ASLIFT=1 RL=Real:"3" RX=Real:"0.9810118431238461909213967204305623"

In:  AM=DEG FL_ASLIFT=0 FL_CPXRES=0 RR=Real:"1" RX=Real:"5"
Out: EC=0 FL_CPXRES=0 FL_ASLIFT=1 RL=Real:"5" RX=Real:"0.9994058151824183070011729089386354"


In:  AM=DEG FL_ASLIFT=0 FL_CPXRES=0 RR=Real:"5" RX=Real:"0"
Out: EC=0 FL_CPXRES=0 FL_ASLIFT=1 RL=Real:"0" RX=Real:"0.006737946999085467096636048423148424"

In:  AM=DEG FL_ASLIFT=0 FL_CPXRES=0 RR=Real:"5" RX=Real:"3"
Out: EC=0 FL_CPXRES=0 FL_ASLIFT=1 RL=Real:"3" RX=Real:"0.2650259152973617058010179046438380"

In:  AM=DEG FL_ASLIFT=0 FL_CPXRES=0 RR=Real:"5" RX=Real:"5"
Out: EC=0 FL_CPXRES=0 FL_ASLIFT=1 RL=Real:"5" RX=Real:"0.6159606548330631170841454266828185"

In:  AM=DEG FL_ASLIFT=0 FL_CPXRES=0 RR=Real:"5" RX=Real:"8"
Out: EC=0 FL_CPXRES=0 FL_ASLIFT=1 RL=Real:"8" RX=Real:"0.9319063652781514412304135082804124"

In:  AM=DEG FL_ASLIFT=0 FL_CPXRES=0 RR=Real:"5" RX=Real:"10"
Out: EC=0 FL_CPXRES=0 FL_ASLIFT=1 RL=Real:"10" RX=Real:"0.9863047314016170617790133845885381"


In:  AM=DEG FL_ASLIFT=0 FL_CPXRES=0 RR=Real:"7.5" RX=Real:"0"
Out: EC=0 FL_CPXRES=0 FL_ASLIFT=1 RL=Real:"0" RX=Real:"5.530843701478335831020000885303572e-4"

In:  AM=DEG FL_ASLIFT=0 FL_CPXRES=0 RR=Real:"7.5" RX=Real:"4"
Out: EC=0 FL_CPXRES=0 FL_ASLIFT=1 RL=Real:"4" RX=Real:"0.1320618562877206078152064742636977"

In:  AM=DEG FL_ASLIFT=0 FL_CPXRES=0 RR=Real:"7.5" RX=Real:"7"
Out: EC=0 FL_CPXRES=0 FL_ASLIFT=1 RL=Real:"7" RX=Real:"0.5246385264876054504527824822751176"

In:  AM=DEG FL_ASLIFT=0 FL_CPXRES=0 RR=Real:"7.5" RX=Real:"10"
Out: EC=0 FL_CPXRES=0 FL_ASLIFT=1 RL=Real:"10" RX=Real:"0.8622379834283879498058751897243040"

In:  AM=DEG FL_ASLIFT=0 FL_CPXRES=0 RR=Real:"7.5" RX=Real:"15"
Out: EC=0 FL_CPXRES=0 FL_ASLIFT=1 RL=Real:"15" RX=Real:"0.9953916836504944106503722317278051"



;=======================================
; PoissonL(Complex) --> Error24
;=======================================
