;*************************************************************
;*************************************************************
;**                                                         **
;**                          sin                            **
;**                                                         **
;*************************************************************
;*************************************************************
In: FL_SPCRES=0 FL_CPXRES=0 SD=0 RMODE=0 IM=2compl SS=4 WS=64
Func: fnSin



;=======================================
; sin(Long Integer) --> Real
;=======================================
In:  AM=DEG FL_ASLIFT=0 FL_CPXRES=0 RX=LonI:"5"
Out: EC=0 FL_CPXRES=0 FL_ASLIFT=1 RL=LonI:"5" RX=Real:"0.087155742747658173558064270837473551377701156149702672613743368"

In:  AM=DEG FL_ASLIFT=0 FL_CPXRES=0 RX=LonI:"3605"
Out: EC=0 FL_CPXRES=0 FL_ASLIFT=1 RL=LonI:"3605" RX=Real:"0.087155742747658173558064270837473551377701156149702672613743368"

In:  AM=DEG FL_ASLIFT=0 FL_CPXRES=0 RX=LonI:"-3595"
Out: EC=0 FL_CPXRES=0 FL_ASLIFT=1 RL=LonI:"-3595" RX=Real:"0.087155742747658173558064270837473551377701156149702672613743368"

In:  AM=DEG FL_ASLIFT=0 FL_CPXRES=0 RX=LonI:"3600000000000000000000000000000000000000000000000000000000000000000000005"
Out: EC=0 FL_CPXRES=0 FL_ASLIFT=1 RL=LonI:"3600000000000000000000000000000000000000000000000000000000000000000000005" RX=Real:"0.087155742747658173558064270837473551377701156149702672613743368"

In:  AM=DEG FL_ASLIFT=0 FL_CPXRES=0 RX=LonI:"-3599999999999999999999999999999999999999999999999999999999999999999999995"
Out: EC=0 FL_CPXRES=0 FL_ASLIFT=1 RL=LonI:"-3599999999999999999999999999999999999999999999999999999999999999999999995" RX=Real:"0.087155742747658173558064270837473551377701156149702672613743368"

In:  AM=MULTPI FL_ASLIFT=0 FL_CPXRES=0 RX=LonI:"1"
Out: EC=0 FL_CPXRES=0 FL_ASLIFT=1 RL=LonI:"1" RX=Real:"0"



;=======================================
; sin(Time)
;=======================================



;=======================================
; sin(Date)
;=======================================



;=======================================
; sin(String) --> Error24
;=======================================
In:  FL_ASLIFT=0 RX=Stri:"String test"
Out: EC=24 FL_ASLIFT=0 RX=Stri:"String test"



;=======================================
; sin(Real Matrix)
;=======================================
In:  AM=RAD FL_ASLIFT=0 FL_CPXRES=0 RX=ReMa:"M2,3[0,-1,2,-3,4,-5]"
Out: EC=0 FL_CPXRES=0 FL_ASLIFT=1 RL=ReMa:"M2,3[0,-1,2,-3,4,-5]" RX=ReMa:"M2,3[0,-0.841470984807896506652502321630298999623,0.909297426825681695396019865911744842702,-0.141120008059867222100744802808110279847,-0.756802495307928251372639094511829094136,0.958924274663138468893154406155993973352]"



;=======================================
; sin(Complex Matrix)
;=======================================
In:  AM=RAD FL_ASLIFT=0 FL_CPXRES=0 RX=CxMa:"M2,3[0,0i-1,2i-1,-3i2,4i3,-5i-4]"
Out: EC=0 FL_CPXRES=1 FL_ASLIFT=1 RL=CxMa:"M2,3[0,0i-1,2i-1,-3i2,4i3,-5i-4]" RX=CxMa:"M2,3[0,0i-1.17520119364380145688238185059560081516,1.40311925062204058801949085976771294407i0.48905625904129367358645456854851592116,-0.53092108624851980526704009066067655967i-3.59056458998577995201256544779481679319,-7.61923172032141020848713573680431179656i-6.54812004091100164776681101883532474082,26.1865273646092102039919617359603587003i-7.7411175532477403846258058331839043950]"



;=======================================
; sin(Short Integer) --> Real
;=======================================
In:  AM=DEG FL_ASLIFT=0 FL_CPXRES=0 RX=ShoI:"5#7"
Out: EC=0 FL_CPXRES=0 FL_ASLIFT=1 RX=Real:"0.087155742747658173558064270837473551377701156149702672613743368"



;=======================================
; sin(Real) --> Real
;=======================================
In:  AM=DEG FL_ASLIFT=0 FL_CPXRES=0 RX=Real:"0.0001"
Out: EC=0 FL_CPXRES=0 FL_ASLIFT=1 RL=Real:"0.0001" RX=Real:"1.7453292519934434807679896054327863376270373123161763888733909e-6"

In:  AM=GRAD FL_ASLIFT=0 FL_CPXRES=0 RX=Real:"50"
Out: EC=0 FL_CPXRES=0 FL_ASLIFT=1 RL=Real:"50" RX=Real:"0.70710678118654752440084436210484903928483593768847403658833987"

In:  AM=DEG FL_ASLIFT=0 FL_CPXRES=0 RX=Real:"89.99999"
Out: EC=0 FL_CPXRES=0 FL_ASLIFT=1 RL=Real:"89.99999" RX=Real:"0.99999999999998476912901066460869590133816095260363995283737583"

In:  AM=MULTPI FL_ASLIFT=0 FL_CPXRES=0 RX=Real:"0.5"
Out: EC=0 FL_CPXRES=0 FL_ASLIFT=1 RL=Real:"0.5" RX=Real:"1"

;In:  FL_ASLIFT=0 FL_CPXRES=0 RX=Real:"5.32564":DMS
;Out: EC=0 FL_CPXRES=0 FL_ASLIFT=1 RL=Real:"5.32564":DMS RX=Real:"0.096696991476460354326283571253429965320146817585929223842090412"

In:  FL_ASLIFT=0 FL_CPXRES=0 RX=Real:"-5.32564":GRAD
Out: EC=0 FL_CPXRES=0 FL_ASLIFT=1 RL=Real:"-5.32564":GRAD RX=Real:"-0.083557419950215407618637047940570976539667684341254230403366529"

; NaN
In:  FL_ASLIFT=0 FL_CPXRES=0 RX=Real:"NaN":RAD
Out: EC=0 FL_CPXRES=0 FL_ASLIFT=1 RL=Real:"NaN":RAD RX=Real:"NaN"

In:  FL_ASLIFT=0 FL_CPXRES=0 RX=Real:"NaN"
Out: EC=0 FL_CPXRES=0 FL_ASLIFT=1 RL=Real:"NaN" RX=Real:"NaN"

; Infinity
In:  FL_ASLIFT=0 FL_CPXRES=0 FL_SPCRES=1 RX=Real:"inf":DEG
Out: EC=0 FL_CPXRES=0 FL_ASLIFT=1 RL=Real:"inf":DEG RX=Real:"NaN"

In:  FL_ASLIFT=0 FL_CPXRES=0 FL_SPCRES=0 RX=Real:"inf":MULTPI
Out: EC=0 FL_CPXRES=0 FL_ASLIFT=1 RL=Real:"inf":MULTPI RX=Real:"NaN"

In:  FL_ASLIFT=0 FL_CPXRES=0 FL_SPCRES=0 RX=Real:"-inf":RAD
Out: EC=0 FL_CPXRES=0 FL_ASLIFT=1 RL=Real:"-inf":RAD RX=Real:"NaN"

In:  FL_ASLIFT=0 FL_CPXRES=0 FL_SPCRES=1 RX=Real:"inf"
Out: EC=0 FL_CPXRES=0 FL_ASLIFT=1 RL=Real:"inf" RX=Real:"NaN"

In:  FL_ASLIFT=0 FL_CPXRES=0 FL_SPCRES=0 RX=Real:"inf"
Out: EC=0 FL_CPXRES=0 FL_ASLIFT=1 RL=Real:"inf" RX=Real:"NaN"

In:  FL_ASLIFT=0 FL_CPXRES=0 FL_SPCRES=0 RX=Real:"-inf"
Out: EC=0 FL_CPXRES=0 FL_ASLIFT=1 RL=Real:"-inf" RX=Real:"NaN"



;=======================================
; sin(Complex) --> Complex
;=======================================
In:  AM=DEG FL_ASLIFT=0 FL_CPXRES=0 RX=Cplx:"6.2 i -7.6"
Out: EC=0 FL_CPXRES=1 FL_ASLIFT=1 RL=Cplx:"6.2 i -7.6" RX=Cplx:"-83.01447260939246956731822669252684923564585757420744504303291 i -995.64291442466093439279120216534258799576102786745168590567828"
